<svg xmlns="http://www.w3.org/2000/svg" width="130" height="60" viewBox="0 0 130 60">
    <g fill="none" fill-rule="evenodd">
        <path fill="#ECC600" d="M57.518 12.194V0h49.658v15.273H72.789v6.958h34.387v15.28H72.789v6.977h34.387v15.016H67.492v-5.358h34.255V50.05H67.492v-18.44h34.255v-3.996H67.492V9.53h34.255V5.2h-38.49v27.079l-.082-.01C62.037 47.778 49.339 60 33.842 60h-.102v-5.854h.102c12.546 0 22.812-9.951 23.624-22.536h.052V12.194z"/>
        <path fill="#17ABDF" d="M30.267 5.854v.009c-.22-.006-.442-.01-.665-.01C16.443 5.854 5.776 16.665 5.776 30c0 13.336 10.667 24.146 23.826 24.146H33.7V60h-4.097C13.253 60 0 46.569 0 30 0 13.48 13.175.08 29.458 0h22.145v15.805H31.151l.006.07c-.464-.046-.934-.07-1.41-.07-7.816 0-14.152 6.42-14.152 14.341 0 7.92 6.336 14.342 14.152 14.342h3.952v5.56h-4.097C18.676 50.049 9.82 41.074 9.82 30c0-11.024 8.78-19.97 19.639-20.048H45.89V5.853H30.267zM114.122 0H130v60h-15.878V0zm5.496 5.32v49.064h5.497V5.32h-5.497z"/>
    </g>
</svg>
